Ödev 1: Uzay Gemisi Titanik – Projem1
…
rf_results <-
  rf_wf %>% 
  tune_grid(resamples = spaceship_val,
            grid = 25,
            control = control_grid(save_pred = TRUE),
            metrics = metric_set(accuracy)
  )

i Creating pre-processing data to finalize unknown parameter: mtry

rf_results %>% 
  collect_predictions()

# A tibble: 43,475 × 7
   .pred_class id          .row  mtry min_n Transported .config              
   <fct>       <chr>      <int> <int> <int> <fct>       <chr>                
 1 FALSE       validation    17    27    12 FALSE       Preprocessor1_Model01
 2 TRUE        validation    19    27    12 TRUE        Preprocessor1_Model01
 3 FALSE       validation    28    27    12 FALSE       Preprocessor1_Model01
 4 FALSE       validation    41    27    12 FALSE       Preprocessor1_Model01
 5 FALSE       validation    43    27    12 FALSE       Preprocessor1_Model01
 6 TRUE        validation    52    27    12 TRUE        Preprocessor1_Model01
 7 TRUE        validation    56    27    12 FALSE       Preprocessor1_Model01
 8 FALSE       validation    60    27    12 TRUE        Preprocessor1_Model01
 9 TRUE        validation    71    27    12 TRUE        Preprocessor1_Model01
10 TRUE        validation    78    27    12 TRUE        Preprocessor1_Model01
# ℹ 43,465 more rows

rf_results %>%
  collect_metrics()

# A tibble: 25 × 8
    mtry min_n .metric  .estimator  mean     n std_err .config              
   <int> <int> <chr>    <chr>      <dbl> <int>   <dbl> <chr>                
 1    27    12 accuracy binary     0.788     1      NA Preprocessor1_Model01
 2    25    16 accuracy binary     0.792     1      NA Preprocessor1_Model02
 3    25    36 accuracy binary     0.794     1      NA Preprocessor1_Model03
 4     7    31 accuracy binary     0.804     1      NA Preprocessor1_Model04
 5    11     4 accuracy binary     0.795     1      NA Preprocessor1_Model05
 6     3    13 accuracy binary     0.796     1      NA Preprocessor1_Model06
 7    19    30 accuracy binary     0.791     1      NA Preprocessor1_Model07
 8    21     8 accuracy binary     0.789     1      NA Preprocessor1_Model08
 9     9    34 accuracy binary     0.800     1      NA Preprocessor1_Model09
10    12    22 accuracy binary     0.798     1      NA Preprocessor1_Model10
# ℹ 15 more rows
…
